…
``` r
dataUSA <- subset(data, Country_USA == 1)
dataGBR <- subset(data, Country_GBR == 1)
dataCAN <- subset(data, Country_CAN == 1)

dataUSA %>%
  select(Title, Hits)
```

    ## # A tibble: 1,251 x 2
    ##    Title                                                               Hits
    ##    <chr>                                                              <int>
    ##  1 Paramount Transportation Leases 136,000-SF Cheverly Facility           0
    ##  2 Newmark Knight Frank Boosts National Appraisal Platform with Deal…    32
    ##  3 Amazon Outgrows Seattle: Opens Search for Second HQ City in North…    71
    ##  4 For Amazon’s Second HQ’s Search, Bigger May Be Better                601
    ##  5 Last Call for Amazon HQ2: Today is Deadline for Communities to Su…  1379
    ##  6 Hundreds of Localities Fortify Their Amazon HQ2 Bids with Hefty F…  1623
    ##  7 Implications of a Tight Office Market and Amazon’s HQ2                27
    ##  8 Amazon Narrows HQ2 Search to 20 Markets                             5149
    ##  9 L.A. Officials ‘Thrilled’ by Amazon HQ2 Short List                   275
    ## 10 Denver Makes Shortlist for Amazon HQ2                                134
    ## # … with 1,241 more rows
…
``` r
data %>%
  arrange(Date)
```

    ## # A tibble: 1,933 x 36
    ##    Date       StoryID Title Summary Body   Hits AuthorID CreatedDate
    ##    <date>       <int> <chr> <chr>   <chr> <int>    <int> <fct>      
    ##  1 2016-03-31  146316 Para… Will O… Wash…     0      132 2016-03-31…
    ##  2 2017-09-05  182305 Newm… Exclus… "New…    32      296 2017-09-05…
    ##  3 2017-09-07  182389 Amaz… Tech G… "Ama…    71      240 2017-09-07…
    ##  4 2017-09-28  183158 For … Bigges… "Whi…   601      240 2017-09-28…
    ##  5 2017-10-19  183882 Last… Hundre… "Tod…  1379      240 2017-10-19…
    ##  6 2017-10-26  184098 Hund… While … "<sp…  1623      240 2017-10-26…
    ##  7 2017-12-04  185294 Impl… With E… "Sin…    27      157 2017-12-04…
    ##  8 2017-12-08  194529 Colu… Surgin… "A r…     1       38 2017-12-08…
    ##  9 2017-12-08  194530 "Rel… Roughl… "New…     0      113 2017-12-08…
    ## 10 2017-12-13  194528 "Day… "Cycle… "Day…     0      312 2017-12-13…
    ## # … with 1,923 more rows, and 28 more variables: Country_USA <int>,
    ## #   Country_CAN <int>, Country_GBR <int>, Tag_None <int>,
    ## #   Tag_National <int>, Tag_Office <int>, Tag_Industrial <int>,
    ## #   Tag_Retail <int>, Tag_People <int>, Tag_Investment <int>,
    ## #   Tag_Analytics <int>, Tag_Development <int>, Tag_Finance <int>,
    ## #   Tag_Events <int>, Tag_Multifamily <int>, Tag_Hospitality <int>,
    ## #   Tag_Company <int>, Tag_Healthcare <int>, Tag_Legal <int>,
    ## #   Tag_Land <int>, Tag_Lease <int>, Tag_Sale <int>, Tag_MixedUse <int>,
    ## #   Tag_SpecialPurpose <int>, Tag_PublicSector <int>,
    ## #   Tag_CompaniesPeople <int>, Tag_CoStarGreenReport <int>, numTags <int>

``` r
data1 <- data %>%
  drop_na()

first_model <- lm(Hits ~ data1$numTags + Date + AuthorID + Country_USA + Country_CAN + Country_GBR + data1$Tag_None + data1$Tag_National + data1$Tag_Office + data1$Tag_Industrial + data1$Tag_Retail + data1$Tag_People + data1$Tag_Investment + data1$Tag_Analytics + data1$Tag_Development + data1$Tag_Finance + data1$Tag_Multifamily + data1$Tag_Hospitality + data1$Tag_Company + data1$Tag_Healthcare + data1$Tag_CompaniesPeople + data1$Tag_Lease + data1$Tag_Sale + data1$Tag_MixedUse + data1$Tag_SpecialPurpose, data = data1)

tidy(first_model)
```

    ## # A tibble: 25 x 5
    ##    term                 estimate std.error statistic  p.value
    ##    <chr>                   <dbl>     <dbl>     <dbl>    <dbl>
    ##  1 (Intercept)          5628.    2667.          2.11 3.49e- 2
    ##  2 data1$numTags         115.      30.2         3.81 1.45e- 4
    ##  3 Date                   -0.353    0.150      -2.35 1.88e- 2
    ##  4 AuthorID                0.157    0.0665      2.36 1.82e- 2
    ##  5 Country_USA           737.      59.4        12.4  5.07e-34
    ##  6 Country_CAN           497.      47.2        10.5  2.91e-25
    ##  7 Country_GBR           201.      64.9         3.09 2.00e- 3
    ##  8 data1$Tag_National    312.      35.4         8.80 3.01e-18
    ##  9 data1$Tag_Office      -64.1     32.5        -1.97 4.86e- 2
    ## 10 data1$Tag_Industrial -134.      34.4        -3.88 1.06e- 4
    ## # … with 15 more rows
…
