Initial data exploration
…
Here we are sub-setting the data by countries.

dataUSA <- subset(data, Country_USA == 1)
dataGBR <- subset(data, Country_GBR == 1)
dataCAN <- subset(data, Country_CAN == 1)

dataUSA %>%
  select(Title, Hits)

## # A tibble: 1,251 x 2
##    Title                                                               Hits
##    <chr>                                                              <int>
##  1 Paramount Transportation Leases 136,000-SF Cheverly Facility           0
##  2 Newmark Knight Frank Boosts National Appraisal Platform with Deal    32
##  3 Amazon Outgrows Seattle: Opens Search for Second HQ City in North    71
##  4 For Amazons Second HQs Search, Bigger May Be Better                601
##  5 Last Call for Amazon HQ2: Today is Deadline for Communities to Su  1379
##  6 Hundreds of Localities Fortify Their Amazon HQ2 Bids with Hefty F  1623
##  7 Implications of a Tight Office Market and Amazons HQ2                27
##  8 Amazon Narrows HQ2 Search to 20 Markets                             5149
##  9 L.A. Officials Thrilled by Amazon HQ2 Short List                   275
## 10 Denver Makes Shortlist for Amazon HQ2                                134
## #  with 1,241 more rows
…
Here is a very basic multivariate linear regression model just for fun:)

data1 <- data %>%
  drop_na()

first_model <- lm(Hits ~ data1$numTags + Date + AuthorID + Country_USA + Country_CAN + Country_GBR + data1$Tag_None + data1$Tag_National + data1$Tag_Office + data1$Tag_Industrial + data1$Tag_Retail + data1$Tag_People + data1$Tag_Investment + data1$Tag_Analytics + data1$Tag_Development + data1$Tag_Finance + data1$Tag_Multifamily + data1$Tag_Hospitality + data1$Tag_Company + data1$Tag_Healthcare + data1$Tag_CompaniesPeople + data1$Tag_Lease + data1$Tag_Sale + data1$Tag_MixedUse + data1$Tag_SpecialPurpose, data = data1)

tidy(first_model)

## # A tibble: 25 x 5
##    term                 estimate std.error statistic  p.value
##    <chr>                   <dbl>     <dbl>     <dbl>    <dbl>
##  1 (Intercept)          5628.    2667.          2.11 3.49e- 2
##  2 data1$numTags         115.      30.2         3.81 1.45e- 4
##  3 Date                   -0.353    0.150      -2.35 1.88e- 2
##  4 AuthorID                0.157    0.0665      2.36 1.82e- 2
##  5 Country_USA           737.      59.4        12.4  5.07e-34
##  6 Country_CAN           497.      47.2        10.5  2.91e-25
##  7 Country_GBR           201.      64.9         3.09 2.00e- 3
##  8 data1$Tag_National    312.      35.4         8.80 3.01e-18
##  9 data1$Tag_Office      -64.1     32.5        -1.97 4.86e- 2
## 10 data1$Tag_Industrial -134.      34.4        -3.88 1.06e- 4
## #  with 15 more rows
…
